<?
include_once ('../librerias/estandar.lib.php');
include_once('../baseDatos/BD.class.php');  
include_once ('../librerias/vistas.lib.php');
include_once("../editor/fckeditor.php") ;
include_once('../calendario/FrmCalendario.class.php');
 include_once ('../menu1/Menu1.class.php');
$baseDatos=new BD();
// FCKeditor([Nombre del recurso] , [Tamaño horizontal] , [Tamaño vertical] , 
//			[Barra de herramientas] , [Texto inicial] ) ;

$editor=new FCKeditor('edt_biblioteca' , '100%' , '100%' , 'barraBasica' , '' ) ;
if(comprobarSession())
{
	$idmateria=$_GET['idmateria'];
	$materia=$_GET['materia'];
		$sql = "SELECT mei_tema.titulo	FROM mei_tema WHERE mei_tema.idtema=".$_GET['tema'];
	$resultado = $baseDatos->ConsultarBD($sql);
	list($tema)=mysql_fetch_row($resultado);
 //IF COMPROBAR SESSION
	if ($_SESSION['idtipousuario']==2 || $_SESSION['idtipousuario']==7 || $_SESSION['idtipousuario']==5)
	{//IF TIPOUSUARIO
?>

<html xmlns="http://www.w3.org/1999/xhtml">
<head>
<meta http-equiv="Content-Type" content="text/html; charset=UTF-8"/>
<title>MEIWEB</title>
<link href="../temas/<?=recuperarVariableSistema("sistematema"); ?>/estilo1024x768.css" rel="stylesheet" type="text/css">
<link href="css/style.css" rel="stylesheet" />

<script> 

function functionMateria()
{ 
	document.frm_cargarArchivo.submit();
}

function validar()
{
	if(document.frm2.cbo_aplicacion.value!="" && 
		document.frm2.txt_tituloarchivo.value!="" && document.frm2.fil_archivo.value!="")

		document.frm2.submit();
	else alert ("Debe llenar todos los campos");
}

</script>
<!-- JavaScript Includes -->
<script src="https://ajax.googleapis.com/ajax/libs/jquery/1.9.1/jquery.min.js"></script>
<script src="js/jquery.knob.js"></script>

<!-- jQuery File Upload Dependencies -->
<script src="js/jquery.ui.widget.js"></script>
<script src="js/jquery.iframe-transport.js"></script>
<script src="js/jquery.fileupload.js"></script>

<!-- Our main JS file -->
<script src="js/script.js"></script>

</head>

<body>
 <table class="tablaPrincipal">
		<tr valign="top">
            <td class="tablaEspacio">&nbsp;</td>
            <td class="tablaIzquierdo"><? menu($_SESSION['idtipousuario']); ?></td>
            <td class="tablaEspacio">&nbsp;</td>
       
        	<td>
	<table class="tablaGeneral" >
      <tr class="trSubTitulo">
        <td>
          <?
		   if($_SESSION["idtipousuario"]==2)
		   {
          $sql = "SELECT mei_materia.nombre FROM mei_materia WHERE mei_materia.idmateria=".$_GET['idmateria'];
		   }
		   else
		   {
		$sql = "SELECT mei_virmateria.nombre FROM mei_virmateria WHERE mei_virmateria.idvirmateria=".$_GET['idmateria'];
		   }		 
		  
       $resultado = $baseDatos->ConsultarBD($sql);
		list($nombre) = mysql_fetch_row($resultado);
			
		?>
		 
        <td class="trSubTitulo"><a href="../scripts/" class="link">Inicio</a> : <a href="../scripts/homeMateria.php?idmateria=<?=$_GET['idmateria']?>&materia=<?= $_GET['materia'] ?>" class="link"><?=ucwords(strtolower($nombre))?></a> : <a href="../contenido/mostrarIndiceEdicion.php?idmateria=<?=$_GET["idmateria"]?>&materia=<?=$_GET["materia"]?>" class="link"> Contenido</a> : Cargar Contenido</a>
        
        
      </tr>
    </table>
	&nbsp;
    <table class="tablaGeneral" border="0">
       <tr class="trTitulo">
         <td><img src="imagenes/cargar.gif" width="15" height="15" border="0"> Cargar Archivos </td>
       </tr>
    </table>
<form id="upload" method="post" action="upload.php" enctype="multipart/form-data">
 <table class="tablaGeneral">
 
 

   <tr class="trInformacion">
      <td width="15%" align="left" valign="middle">&nbsp; </td>
      <td width="75%">&nbsp;</td>
    </tr>
    <tr class="trInformacion">
      <td width="15%" align="left" valign="middle"><b>Usuario : </b></td>
      <td width="75%"><strong>
        <?= $_SESSION['nombreusuario']." ".$_SESSION['apellidousuario']?>
      </strong></td>
    </tr>
    <tr class="trInformacion">
     <?                        
			if ($_SESSION['idtipousuario']==5)
			{
?>				
					<td width="25%"><b>Curso:</b></td>
<?                        
			}
			else
			{
?>	
					<td width="25%"><b>Materia:</b></td>
<?                        
			}
?>	
      <td width="75%"><?= $_GET["materia"]?>
          <input name="hid_materia" type="hidden" id="hid_materia" value="<?=$_GET["materia"]?>"></td>
    </tr>
    <tr class="trInformacion">
      <td width="15%" align="left" valign="middle"><b>Tema : </b></td>
      <td><?= $tema?>
	  
	  <input  name="cbo_tema" type="hidden"  value="<?= $_GET['tema'] ?>" >
	  <input  name="tema"  type="hidden" value="<?= $tema?>" ></td>
	  
    </tr>
    <tr class="trInformacion">
      <td width="15%" align="left" valign="middle"><b>Tipo de Aplicaci&oacute;n : </b></td>
      <td><select name="cbo_aplicacion" id="cbo_aplicacion">
<!--			  <option class='link' value="Materia"></option> -->
	  	  <?
			$sql = "SELECT * FROM `mei_tipoaplicacion`";
			$resultado = $baseDatos->ConsultarBD($sql);
			while ( list($idaplica, $tipoaplica) = mysql_fetch_row($resultado) )
			{
				print "<option class='link' value='$idaplica-$tipoaplica'>$tipoaplica</option>\n";
			}				
			mysql_free_result($resultado);
		  ?>
          </select>      </td>
    </tr>
    <!--<tr class="trInformacion">
      <td width="15%" align="left" valign="middle"><b>Titulo del Archivo : </b></td>
      <td>
        <input class="link" name="txt_tituloarchivo" type="text" id="txt_tituloarchivo"></td>
    </tr>-->
    <tr class="trInformacion">
      <td width="15%" align="left" valign="middle"><b>Archivo : </b></td>
      <td><input class="link" name="fil_archivo" type="hidden" id="fil_archivo"></td>
    </tr>
    <tr class="trInformacion">
      <td width="15%" align="left" valign="middle"><b>Descripci&oacute;n del Archivo </b></td>
      <td><? 

			if(empty($_POST['hid_biblioteca']))
				$editor->Value='';
			else
				$editor->Value=$_POST['hid_biblioteca'];
				$editor->crearEditor();
		  ?>	  </td>
    </tr>
    
    <tr>
      <td class="trSubTitulo" colspan="2" align="center" valign="middle">
        	<div id="drop">
				Arrastrar Archivos

				<a>Buscar</a>
				<input type="file" name="upl" multiple />
			</div>

			<ul>
				<!-- The file uploads will be shown here -->
			</ul>
      </td>
      </tr>

      <tr>
    <td></td>
  </tr>
  <tr>
    <td></td>
  </tr>
  <tr align="center" valign="middle">
        <td class="trSubTitulo" colspan="6"><a href="../contenido/mostrarContenido.php?idmateria=<?=$_GET["idmateria"]?>&idTema=<?=$_GET["tema"]?>&materia=<?=$_GET["materia"]?>&num=<?=$_GET["num"]?>" class="link"><strong>Volver</strong></a></td>
        </tr>
  
  </table>
</form> 

  
</td>


 <td class="tablaEspacio">&nbsp;</td>
		<td class="tablaDerecho"><? menu1($_SESSION['idtipousuario']); ?></td>
        <td class="tablaEspacioDerecho">&nbsp;</td>
  </tr>
</table>
</body>
</html>
<? 
	}//FIN IF TIPOUSUARIO
	else redireccionar('../login/');					
}//FIN IF COMPROBAR SESSION
else redireccionar('../login/');					
?>

